/cmd/wiz/apprentice
/cmd/wiz/pilgrim
/cmd/wiz/retired
/cmd/wiz/normal
/cmd/wiz/mage
/cmd/wiz/lord
/cmd/wiz/arch
/cmd/wiz/keeper
/cmd/wiz/mbs
/cmd/live/info
/cmd/live/items
/cmd/live/communication
/cmd/live/social
/cmd/live/state
/cmd/live/thief
/cmd/live/things
/cmd/std/misc_cmd
/cmd/std/soul_cmd
/cmd/std/tracer_tool
/sys/global/mudtime
/sys/global/mudtime2
/lib/cache
/lib/drink_water
/lib/pub
/lib/shop
/lib/skill_raise
/lib/store_support
/lib/trade
/std/act/action
/std/act/add_things
/std/act/asking
/std/act/attack
/std/act/chat
/std/act/domove
/std/act/ranpick
/std/act/seqaction
/std/act/trigaction
/std/object
/std/container
/std/room
/std/living
/std/player_sec
/std/player_pub
/std/mobile
/std/creature
/std/npc
/std/monster
/std/shadow
/std/workroom
/std/combat/cbase
/std/combat/cplain
/std/combat/ctool
/std/combat/chumanoid
/std/combat/chumlock
/std/combat/unarmed
/std/combat/humunarmed
/std/guild/guild_base
/std/guild/guild_lay_sh
/std/guild/guild_occ_sh
/std/guild/guild_race_sh
/std/paralize/lezenie
/sys/global/adverbs
/sys/global/colors
/sys/global/cmdparse
/sys/global/composite
/sys/global/debug
/sys/global/filepath
/sys/global/filters
/sys/global/language
/sys/global/manpath
/sys/global/materialy
/sys/global/math
/sys/global/money
/sys/global/signal_processor
/sys/global/slots
/sys/global/speech
/sys/global/subloc
/sys/global/tags
/sys/global/time
/sys/global/udp
/sys/global/zarost
/sys/global/color_mixer
/secure/login
/secure/mail_checker
/secure/mbs_central
/secure/queue
/secure/zegar
/secure/npce
/secure/event_master
/d/Standard/race/generic
/d/Standard/race/czlowiek_std
/d/Standard/race/elf_std
/d/Standard/race/polelf_std
/d/Standard/race/krasnolud_std
/d/Standard/race/niziolek_std
/d/Standard/race/gnom_std
/d/Standard/cmd/misc
/d/Standard/cmd/misc_cmd_krasnolud
/d/Standard/cmd/misc_cmd_elf
/d/Standard/cmd/misc_cmd_polelf
/d/Standard/cmd/misc_cmd_ghost
/d/Standard/cmd/misc_cmd_gnom
/d/Standard/cmd/misc_cmd_niziolek
/d/Standard/cmd/misc_cmd_czlowiek
/d/Standard/cmd/soul_cmd_krasnolud
/d/Standard/cmd/soul_cmd_elf
/d/Standard/cmd/soul_cmd_polelf
/d/Standard/cmd/soul_cmd_ghost
/d/Standard/cmd/soul_cmd_gnom
/d/Standard/cmd/soul_cmd_niziolek
/d/Standard/cmd/soul_cmd_czlowiek
/d/Standard/wiz/wizroom
